Handbrake Version: 1.0.7 (2017122800)

** (ghb:5541): WARNING **: Inhibit failed: The name org.freedesktop.PowerManagement was not provided by any .service files
[14:25:11] gtkgui: Preset: /General/Fast 1080p30
[14:25:11] 1 job(s) to process
[14:25:11] json job:
{
    "Audio": {
        "AudioList": [
            {
                "Bitrate": 160,
                "CompressionLevel": -1.0,
                "DRC": 0.0,
                "DitherMethod": "auto",
                "Encoder": "av_aac",
                "Gain": 0.0,
                "Mixdown": "stereo",
                "NormalizeMixLevel": false,
                "PresetEncoder": "av_aac",
                "Quality": -3.0,
                "Samplerate": "auto",
                "Track": 0
            }
        ],
        "CopyMask": [
            "copy:aac"
        ],
        "FallbackEncoder": "av_aac"
    },
    "Destination": {
        "ChapterList": [
            {
                "Name": "Chapter 1"
            }
        ],
        "ChapterMarkers": false,
        "File": "/home/jeronimo/Видео/MOV002.m4v",
        "Mp4Options": {
            "IpodAtom": false,
            "Mp4Optimize": false
        },
        "Mux": "m4v"
    },
    "Filters": {
        "FilterList": [
            {
                "ID": 3,
                "Settings": {
                    "block-height": "16",
                    "block-thresh": "40",
                    "block-width": "16",
                    "filter-mode": "2",
                    "mode": "3",
                    "motion-thresh": "1",
                    "spatial-metric": "2",
                    "spatial-thresh": "1"
                }
            },
            {
                "ID": 4,
                "Settings": {
                    "mode": "7"
                }
            },
            {
                "ID": 6,
                "Settings": {
                    "mode": 2,
                    "rate": "27000000/900000"
                }
            },
            {
                "ID": 11,
                "Settings": {
                    "crop-bottom": 0,
                    "crop-left": 0,
                    "crop-right": 0,
                    "crop-top": 0,
                    "height": 576,
                    "width": 704
                }
            }
        ]
    },
    "Metadata": {
        "Name": "MOV002"
    },
    "PAR": {
        "Den": 11,
        "Num": 12
    },
    "SequenceID": 0,
    "Source": {
        "Angle": 0,
        "Path": "/home/jeronimo/Видео/PRG071/MOV002.MOD",
        "Range": {
            "End": 1,
            "Start": 1,
            "Type": "chapter"
        },
        "Title": 1
    },
    "Subtitle": {
        "Search": {
            "Burn": true,
            "Default": false,
            "Enable": false,
            "Forced": false
        },
        "SubtitleList": []
    },
    "Video": {
        "ColorMatrixCode": 0,
        "Encoder": "x264",
        "Level": "4.0",
        "OpenCL": false,
        "Options": "",
        "Preset": "fast",
        "Profile": "main",
        "QSV": {
            "AsyncDepth": 4,
            "Decode": false
        },
        "Quality": 22.0,
        "Tune": "",
        "Turbo": false,
        "TwoPass": false
    }
}
[14:25:11] CPU: Intel(R) Core(TM) i5-4210U CPU @ 1.70GHz
[14:25:11]  - Intel microarchitecture Haswell
[14:25:11]  - logical processor count: 4
[14:25:11] hb_scan: path=/home/jeronimo/Видео/PRG071/MOV002.MOD, title_index=1
udfread ERROR: ECMA 167 Volume Recognition failed
disc.c:274: failed opening UDF image /home/jeronimo/Видео/PRG071/MOV002.MOD
disc.c:352: error opening file BDMV/index.bdmv
disc.c:352: error opening file BDMV/BACKUP/index.bdmv
[14:25:11] bd: not a bd - trying as a stream/file instead
libdvdnav: Using dvdnav version 5.0.1
libdvdread:DVDOpenFileUDF:UDFFindFile /VIDEO_TS/VIDEO_TS.IFO failed
libdvdread:DVDOpenFileUDF:UDFFindFile /VIDEO_TS/VIDEO_TS.BUP failed
libdvdread: Can't open file VIDEO_TS.IFO.
libdvdnav: vm: failed to read VIDEO_TS.IFO
[14:25:11] dvd: not a dvd - trying as a stream/file instead
[14:25:11] file is MPEG Program Stream
[14:25:11] Probing 1 unknown stream
[14:25:11]     Probe: Found stream mpeg2video. stream id 0xe0-0x0
[14:25:11] Found the following streams
[14:25:11]     Video Streams : 
[14:25:11]       0xe0-0x0 type MPEG2 (0x2)
[14:25:11]     Audio Streams : 
[14:25:11]       0xbd-0x80 type AC3 (0x81)
[14:25:11]     Subtitle Streams : 
[14:25:11]     Other Streams : 
[14:25:11] stream id 0xbd (type 0x81 substream 0x80) audio 0x8000bd
[14:25:12] scan: decoding previews for title 1
[14:25:12] file is MPEG Program Stream
[14:25:12] Probing 1 unknown stream
[14:25:12]     Probe: Found stream mpeg2video. stream id 0xe0-0x0
[14:25:12] scan: audio 0x8000bd: ac3, rate=48000Hz, bitrate=256000 Unknown (AC3) (2.0 ch)
[14:25:12] stream: 74 good frames, 0 errors (0%)
[14:25:12] scan: 10 previews, 704x576, 25,000 fps, autocrop = 0/0/0/0, aspect 4:3, PAR 12:11
[14:25:12] libhb: scan thread found 1 valid title(s)
[14:25:12] starting job
[14:25:12] decomb filter thread started for segment 0
[14:25:12] decomb filter thread started for segment 1
[14:25:12] decomb filter thread started for segment 2
[14:25:12] decomb filter thread started for segment 3
[14:25:12] decomb check thread started for segment 0
[14:25:12] decomb check thread started for segment 1
[14:25:12] decomb check thread started for segment 2
[14:25:12] decomb check thread started for segment 3
[14:25:12] mask filter thread started for segment 0
[14:25:12] mask filter thread started for segment 1
[14:25:12] mask filter thread started for segment 2
[14:25:12] mask filter thread started for segment 3
[14:25:12] mask erode thread started for segment 0
[14:25:12] mask erode thread started for segment 1
[14:25:12] mask erode thread started for segment 2
[14:25:12] mask erode thread started for segment 3
[14:25:12] mask dilate thread started for segment 0
[14:25:12] mask dilate thread started for segment 1
[14:25:12] mask dilate thread started for segment 2
[14:25:12] mask dilate thread started for segment 3
[14:25:12] yadif thread started for segment 0
[14:25:12] yadif thread started for segment 1
[14:25:12] yadif thread started for segment 2
[14:25:12] yadif thread started for segment 3
[14:25:12] job configuration:
[14:25:12]  * source
[14:25:12]    + /home/jeronimo/Видео/PRG071/MOV002.MOD
[14:25:12]    + title 1, chapter(s) 1 to 1
[14:25:12]  * destination
[14:25:12]    + /home/jeronimo/Видео/MOV002.m4v
[14:25:12]    + container: MPEG-4 (libavformat)
[14:25:12]  * video track
[14:25:12]    + decoder: mpeg2video
[14:25:12]      + bitrate 9510 kbps
[14:25:12]    + filters
[14:25:12]      + Comb Detect (mode=3:spatial-metric=2:motion-thresh=1:spatial-thresh=1:filter-mode=2:block-thresh=40:block-width=16:block-height=16)
[14:25:12]      + Decomb (mode=39)
[14:25:12]      + Framerate Shaper (mode=2:rate=27000000/900000)
[14:25:12]        + frame rate: 25,000 fps -> peak rate limited to 30,000 fps
[14:25:12]      + Crop and Scale (width=704:height=576:crop-top=0:crop-bottom=0:crop-left=0:crop-right=0)
[14:25:12]        + source: 704 * 576, crop (0/0/0/0): 704 * 576, scale: 704 * 576
[14:25:12]    + Output geometry
[14:25:12]      + storage dimensions: 704 x 576
[14:25:12]      + pixel aspect ratio: 12 : 11
[14:25:12]      + display dimensions: 768 x 576
[14:25:12]    + encoder: H.264 (libx264)
[14:25:12]      + preset:  fast
[14:25:12]      + profile: main
[14:25:12]      + level:   4.0
[14:25:12]      + quality: 22,00 (RF)
[14:25:12]  * audio track 1
[14:25:12]    + decoder: Unknown (AC3) (2.0 ch) (track 1, id 0x8000bd)
[14:25:12]      + bitrate: 256 kbps, samplerate: 48000 Hz
[14:25:12]    + mixdown: Stereo
[14:25:12]    + encoder: AAC (libavcodec)
[14:25:12]      + bitrate: 160 kbps, samplerate: 48000 Hz
[14:25:12] file is MPEG Program Stream
[14:25:12] Probing 1 unknown stream
[14:25:12]     Probe: Found stream mpeg2video. stream id 0xe0-0x0
[14:25:12] sync: expecting 7603 video frames
[14:25:12] encx264: encoding at constant RF 22,000000
[14:25:12] encx264: unparsed options: level=4.0:ref=2:8x8dct=0:weightp=1:subme=6:vbv-bufsize=25000:vbv-maxrate=20000:rc-lookahead=30
x264 [info]: using SAR=12/11
x264 [info]: using cpu capabilities: MMX2 SSE2Fast SSSE3 SSE4.2 AVX FMA3 BMI2 AVX2
x264 [info]: profile Main, level 4.0
[14:25:12] sync: first pts video is 0
[14:25:12] sync: first pts audio 0x8000bd is 0
[14:28:32] reader: done. 1 scr changes
[14:28:35] work: average encoding speed for job is 37,596085 fps
[14:28:35] comb detect: heavy 7384 | light 88 | uncombed 99 | total 7571
[14:28:35] decomb: deinterlaced 7384 | blended 88 | unfiltered 99 | total 7571
[14:28:35] vfr: 7571 frames output, 0 dropped and 0 duped for CFR/PFR
[14:28:35] vfr: lost time: 0 (0 frames)
[14:28:35] vfr: gained time: 0 (0 frames) (0 not accounted for)
[14:28:35] stream: 90574 good frames, 0 errors (0%)
[14:28:35] ac3-decoder done: 9465 frames, 0 decoder errors
[14:28:35] mpeg2video-decoder done: 7571 frames, 0 decoder errors
[14:28:35] sync: got 7571 frames, 7603 expected
[14:28:35] sync: framerate min 12,500 fps, max 25,000 fps, avg 24,997 fps
x264 [info]: frame I:32    Avg QP:20,85  size: 40695
x264 [info]: frame P:1918  Avg QP:23,56  size: 18160
x264 [info]: frame B:5621  Avg QP:26,60  size:  5685
x264 [info]: consecutive B-frames:  0,7%  0,6%  0,9% 97,8%
x264 [info]: mb I  I16..4: 12,3%  0,0% 87,7%
x264 [info]: mb P  I16..4:  3,2%  0,0%  8,6%  P16..4: 44,4% 30,8% 11,4%  0,0%  0,0%    skip: 1,5%
x264 [info]: mb B  I16..4:  2,6%  0,0%  0,6%  B16..8: 37,0% 11,7%  0,8%  direct:29,4%  skip:17,9%  L0:38,6% L1:47,2% BI:14,2%
x264 [info]: coded y,uvDC,uvAC intra: 54,5% 89,2% 46,8% inter: 27,8% 60,2% 7,7%
x264 [info]: i16 v,h,dc,p: 48% 13% 18% 20%
x264 [info]: i4 v,h,dc,ddl,ddr,vr,hd,vl,hu: 30% 12% 16%  6%  8%  9%  7%  8%  6%
x264 [info]: i8c dc,h,v,p: 53% 15% 23%  9%
x264 [info]: Weighted P-Frames: Y:10,0% UV:3,1%
x264 [info]: ref P L0: 62,9% 37,1%
x264 [info]: ref B L0: 87,8% 12,2%
x264 [info]: ref B L1: 97,2%  2,8%
x264 [info]: kb/s:1798,17
[14:28:35] mux: track 0, 7571 frames, 68086249 bytes, 1798,13 kbps, fifo 2048
[14:28:35] mux: track 1, 14198 frames, 6064669 bytes, 160,17 kbps, fifo 4096
[14:28:35] libhb: work result = 0
